<?xml version="1.0" standalone="no"?>
<!DOCTYPE svg PUBLIC "-//W3C//DTD SVG 1.1//EN" "http://www.w3.org/Graphics/SVG/1.1/DTD/svg11.dtd">
<svg xmlns="http://www.w3.org/2000/svg">
<metadata>Copyright (C) 2017 by original authors @ fontello.com</metadata>
<defs>
<font id="fontello" horiz-adv-x="1000" >
<font-face font-family="fontello" font-weight="400" font-stretch="normal" units-per-em="1000" ascent="850" descent="-150" />
<missing-glyph horiz-adv-x="1000" />
<glyph glyph-name="cc" unicode="&#xe800;" d="M474 830q198 2 340-136t146-336q2-200-136-342t-338-146q-198-2-341 137t-145 337q-4 200 135 342t339 144z m12-858q156 2 266 114t108 270-115 267-269 107q-158-2-267-114t-107-270 114-267 270-107z m-124 298q40 0 58 40l56-30q-20-36-50-52-32-20-70-20-62 0-100 38-38 36-38 104t38 106 96 38q86 0 124-66l-62-32q-10 20-24 28t-28 8q-60 0-60-82 0-38 14-58 18-22 46-22z m266 0q42 0 56 40l58-30q-18-32-50-52t-70-20q-64 0-100 38-38 36-38 104 0 64 38 106 38 38 98 38 84 0 120-66l-60-32q-10 20-24 28t-28 8q-62 0-62-82 0-36 16-58t46-22z" horiz-adv-x="960" />

<glyph glyph-name="mail" unicode="&#xe801;" d="M929 11v428q-18-20-39-36-149-115-238-189-28-24-46-37t-48-28-57-13h-2q-26 0-57 13t-48 28-46 37q-88 74-238 189-21 16-39 36v-428q0-7 6-13t12-5h822q7 0 12 5t6 13z m0 586v14t-1 7-1 7-3 5-5 4-8 2h-822q-7 0-12-6t-6-12q0-94 83-159 107-84 223-176 4-3 20-17t25-21 25-17 28-16 24-5h2q11 0 24 5t28 16 25 17 25 21 20 17q116 92 224 176 30 24 56 65t26 73z m71 21v-607q0-37-26-63t-63-27h-822q-36 0-63 27t-26 63v607q0 37 26 63t63 26h822q37 0 63-26t26-63z" horiz-adv-x="1000" />

<glyph glyph-name="cc-by" unicode="&#xe802;" d="M480 526q-66 0-66 68t66 68q68 0 68-68t-68-68z m98-26q14 0 22-8 10-10 10-22l0-196-56 0 0-234-148 0 0 234-56 0 0 196q0 12 10 22 8 8 22 8l196 0z m-98 330q200 0 340-140t140-340q0-198-140-339t-340-141q-198 0-339 141t-141 339q0 200 141 340t339 140z m0-872q162 0 277 115t115 277q0 164-115 278t-277 114-277-114-115-278q0-162 115-277t277-115z" horiz-adv-x="960" />

<glyph glyph-name="cc-nc-eu" unicode="&#xe803;" d="M480 830q200 0 340-140t140-340q0-198-140-339t-340-141q-198 0-339 141t-141 339q0 200 141 340t339 140z m-370-352q-22-62-22-128 0-162 115-277t277-115q110 0 201 55t143 149l-246 108-174 0q10-36 26-56 38-40 104-40 46 0 92 20l18-90q-56-30-124-30-128 0-196 92-34 44-46 104l-52 0 0 58 44 0 0 14q0 4 1 12t1 12l-46 0 0 56 10 0z m488-112l262-116q12 48 12 100 0 164-115 278t-277 114q-102 0-189-48t-141-130l158-70q8 14 28 38 72 82 184 82 70 0 122-24l-24-92q-40 20-88 20-64 0-100-44-10-10-16-28l56-24 136 0 0-56-8 0z" horiz-adv-x="960" />

<glyph glyph-name="cc-nc" unicode="&#xe804;" d="M480 830q200 0 340-140t140-340q0-198-140-339t-340-141q-198 0-339 141t-141 339q0 200 141 340t339 140z m-370-350q-22-62-22-130 0-162 115-277t277-115q110 0 202 56t142 148l-178 80q-8-46-46-74-38-30-86-34l0-74-56 0 0 74q-78 0-146 58l66 66q50-44 108-44 24 0 42 12t18 36q0 18-14 30l-46 20-56 26-76 32z m506-122l242-108q14 44 14 100 0 164-115 278t-277 114q-102 0-188-48t-140-130l182-82q12 36 46 62 32 22 78 24l0 74 56 0 0-74q68-4 120-44l-62-64q-44 28-84 28-24 0-38-8-18-10-18-30 0-8 4-12l60-28 42-18z" horiz-adv-x="960" />

<glyph glyph-name="cc-nc-jp" unicode="&#xe805;" d="M480 830q200 0 340-140t140-340q0-198-140-339t-340-141q-198 0-339 141t-141 339q0 200 141 340t339 140z m-374-364q-18-54-18-116 0-162 115-277t277-115q106 0 195 52t141 140l-152 68 0-68-126 0 0-108-118 0 0 108-124 0 0 74 124 0 0 36-12 24-112 0 0 74 54 0z m432-242l112 0-106 48-6-12 0-36z m126 100l192-86q16 58 16 112 0 164-115 278t-277 114q-106 0-194-51t-140-137l158-70-54 98 128 0 76-166 46-20 82 186 128 0-122-224 76 0 0-34z" horiz-adv-x="960" />

<glyph glyph-name="cc-sa" unicode="&#xe806;" d="M478 604q114 0 180-74 66-72 66-186 0-110-68-184-74-74-180-74-80 0-142 50-58 48-70 138l120 0q6-86 106-86 50 0 82 42 30 44 30 118 0 76-28 116-30 40-82 40-96 0-108-86l36 0-96-94-94 94 36 0q14 90 72 138t140 48z m2 226q200 0 340-140t140-340q0-198-140-339t-340-141q-198 0-339 141t-141 339q0 200 141 340t339 140z m0-872q162 0 277 115t115 277q0 164-115 278t-277 114-277-114-115-278q0-162 115-277t277-115z" horiz-adv-x="960" />

<glyph glyph-name="cc-nd" unicode="&#xe807;" d="M306 382l0 82 348 0 0-82-348 0z m0-154l0 82 348 0 0-82-348 0z m174 602q200 0 340-140t140-340q0-198-140-339t-340-141q-198 0-339 141t-141 339q0 200 141 340t339 140z m0-872q162 0 277 115t115 277q0 164-115 278t-277 114-277-114-115-278q0-162 115-277t277-115z" horiz-adv-x="960" />

<glyph glyph-name="cc-zero" unicode="&#xe808;" d="M480 628q108 0 153-81t45-197q0-114-45-195t-153-81-153 81-45 195q0 116 45 197t153 81z m-86-278q0-18 4-66l106 194q14 24-6 42-12 4-18 4-86 0-86-174z m86-172q86 0 86 172 0 40-6 84l-118-204q-22-30 12-46 2-2 6-2 2 0 2-2 2 0 8-1t10-1z m0 652q200 0 340-140t140-340q0-198-140-339t-340-141q-198 0-339 141t-141 339q0 200 141 340t339 140z m0-872q162 0 277 115t115 277q0 164-115 278t-277 114-277-114-115-278q0-162 115-277t277-115z" horiz-adv-x="960" />

<glyph glyph-name="cc-pd" unicode="&#xe809;" d="M480 830q200 0 340-140t140-340q0-198-140-339t-340-141q-198 0-339 141t-141 339q0 200 141 340t339 140z m-370-352q-22-62-22-128 0-162 115-277t277-115q110 0 201 55t143 149l-424 188q2-54 28-96t76-42q36 0 64 26l6 6 70-84q-4-2-10-7t-8-9q-62-42-136-42-86 0-159 58t-73 188q0 32 6 62z m310-34l440-194q12 48 12 100 0 164-115 278t-277 114q-102 0-189-48t-141-130l148-66q64 102 196 102 88 0 150-54l-78-80q-8 8-14 12-22 16-52 16-52 0-80-50z" horiz-adv-x="960" />

<glyph glyph-name="cc-share" unicode="&#xe80a;" d="M676 488q12 0 20-8t8-18l0-354q0-10-8-18t-20-8l-260 0q-12 0-20 8t-8 18l0 104-104 0q-10 0-18 8t-8 20l0 352q0 12 6 18 4 6 18 10l264 0q10 0 18-8t8-20l0-104 104 0z m-264 0l108 0 0 78-210 0 0-300 78 0 0 196q0 10 8 18 4 4 16 8z m238-354l0 302-210 0 0-302 210 0z m-170 696q200 0 340-140t140-340q0-198-140-339t-340-141q-198 0-339 141t-141 339q0 200 141 340t339 140z m0-872q162 0 277 115t115 277q0 164-115 278t-277 114-277-114-115-278q0-162 115-277t277-115z" horiz-adv-x="960" />

<glyph glyph-name="cc-remix" unicode="&#xe80b;" d="M794 342l10-4 0-136-10-4-116-50-4-2-6 2-252 104-8 4-124-52-124 54 0 122 116 48-2 2 0 136 130 56 294-122 0-118z m-136-158l0 86-2 0 0 2-220 90 0-86 220-92 0 2z m14 112l78 32-72 30-76-32z m102-74l0 84-86-36 0-84z m-294 608q200 0 340-140t140-340q0-198-140-339t-340-141q-198 0-339 141t-141 339q0 200 141 340t339 140z m0-872q162 0 277 115t115 277q0 164-115 278t-277 114-277-114-115-278q0-162 115-277t277-115z" horiz-adv-x="960" />

<glyph glyph-name="cog" unicode="&#xe80d;" d="M0 538q0 76 63 124l0 94q0 39 27 67t66 27 67-27 27-67l0-94q63-48 63-124t-63-125l0-469q0-39-27-67t-67-27-66 27-27 67l0 469q-63 48-63 125z m63 0q0-12 3-26l2-6q4-13 12-23 8-12 20-21t25-12q16-6 31-6t32 6q13 4 25 13 12 8 19 20 8 10 12 23l2 6q4 14 4 26t-4 25q-2 4-2 6-4 13-12 23-7 12-19 21t-25 12q-16 6-32 6t-31-6q-14-4-25-13-10-8-20-20-8-10-12-23l-2-6q-3-14-3-25z m62-594q0-14 9-23t22-9 23 9 9 23l0 441q-16-4-32-4t-31 4l0-441z m0 746q16 4 31 4t32-4l0 66q0 14-9 23t-23 8-22-8-9-23l0-66z m219-527q0 76 62 125l0 468q0 39 28 67t66 27 66-27 28-67l0-468q62-49 62-125t-62-125l0-94q0-39-28-67t-66-27-66 27-28 67l0 94q-62 48-62 125z m62 0q0-12 4-26l2-6q4-13 12-23 8-12 19-21t26-12q15-6 31-6t31 6q14 4 26 13 11 8 19 20 8 10 12 23 0 2 2 6 4 14 4 26t-4 25l-2 6q-4 13-12 23-8 12-19 20-12 10-26 13-15 6-31 6t-31-6q-14-3-26-13-9-8-19-20-8-10-12-23l-2-6q-4-14-4-25z m63-219q0-14 9-23t22-9 22 9 9 23l0 66q-15-4-31-4t-31 4l0-66z m0 371q15 4 31 4t31-4l0 441q0 14-9 23t-22 8-22-8-9-23l0-441z m219 223q0 76 62 124l0 94q0 39 27 67t67 27 66-27 27-67l0-94q63-48 63-124t-63-125l0-469q0-39-27-67t-66-27-67 27-27 67l0 469q-62 48-62 125z m62 0q0-12 4-26l2-6q4-13 12-23 7-12 19-21t25-12q16-6 32-6t31 6q14 4 25 13 12 8 20 20 8 10 12 23 0 2 2 6 3 14 3 26t-3 25l-2 6q-4 13-12 23-8 12-20 20-11 9-25 13-16 6-31 6t-32-6q-13-4-25-13-12-8-19-20-8-10-12-23l-2-6q-4-14-4-25z m62-594q0-14 9-23t23-9 22 9 9 23l0 441q-16-4-31-4t-32 4l0-441z m0 746q16 4 32 4t31-4l0 66q0 14-9 23t-22 8-23-8-9-23l0-66z" horiz-adv-x="1000" />

<glyph glyph-name="twitter" unicode="&#xf099;" d="M904 622q-37-54-90-93 0-8 0-23 0-73-21-145t-64-139-103-117-144-82-181-30q-151 0-276 81 19-2 43-2 126 0 224 77-59 1-105 36t-64 89q19-3 34-3 24 0 48 6-63 13-104 62t-41 115v2q38-21 82-23-37 25-59 64t-22 86q0 49 25 91 68-83 164-133t208-55q-5 21-5 41 0 75 53 127t127 53q79 0 132-57 61 12 115 44-21-64-80-100 52 6 104 28z" horiz-adv-x="928.6" />

<glyph glyph-name="linkedin" unicode="&#xf0e1;" d="M195 501v-553h-184v553h184z m12 171q0-41-29-68t-75-27h-1q-46 0-74 27t-28 68q0 41 29 68t75 27 74-27 29-68z m650-407v-317h-183v296q0 59-23 92t-71 33q-35 0-58-19t-36-48q-6-17-6-45v-309h-184q1 223 1 361t0 165l-1 27h184v-80h-1q11 18 23 31t31 29 49 24 64 9q95 0 153-63t58-186z" horiz-adv-x="857.1" />

<glyph glyph-name="coffee" unicode="&#xf0f4;" d="M929 493q0 45-32 76t-76 31h-35v-214h35q45 0 76 31t32 76z m-929-429h1000q0-59-42-101t-101-42h-714q-59 0-101 42t-42 101z m1036 429q0-89-63-152t-152-62h-35v-18q0-52-37-88t-88-37h-393q-51 0-88 37t-37 88v410q0 15 11 26t25 10h642q89 0 152-63t63-151z" horiz-adv-x="1071.4" />

<glyph glyph-name="github" unicode="&#xf113;" d="M357 171q0-22-7-45t-24-43-40-19-41 19-24 43-7 45 7 46 24 43 41 19 40-19 24-43 7-46z m357 0q0-22-7-45t-24-43-40-19-41 19-24 43-7 45 7 46 24 43 41 19 40-19 24-43 7-46z m90 0q0 67-39 114t-104 47q-23 0-109-12-40-6-88-6t-87 6q-85 12-109 12-66 0-104-47t-39-114q0-49 18-85t45-58 68-33 78-17 83-4h94q46 0 83 4t78 17 69 33 45 58 18 85z m125 99q0-116-34-185-22-43-59-74t-79-48-95-27-96-12-93-3q-43 0-79 2t-82 7-85 17-77 29-67 45-48 64q-35 69-35 185 0 132 76 221-15 45-15 95 0 64 28 121 61 0 106-22t106-69q82 20 172 20 83 0 157-18 58 46 104 67t105 22q29-57 29-121 0-49-15-94 76-89 76-222z" horiz-adv-x="928.6" />

<glyph glyph-name="slack" unicode="&#xf198;" d="M848 417q34 0 57-23t24-56q0-54-52-73l-96-33 31-93q4-12 4-26 0-33-24-57t-56-24q-26 0-48 15t-29 40l-31 92-173-59 31-91q4-14 4-27 0-33-23-57t-57-24q-27 0-48 15t-29 41l-31 91-85-30q-17-5-28-5-34 0-57 22t-23 57q0 26 16 47t40 30l87 29-59 175-87-30q-14-5-27-5-33 0-56 23t-23 56q0 26 15 48t40 29l88 30-30 88q-4 14-4 27 0 33 23 57t57 24q26 0 48-16t29-40l30-89 173 59-30 89q-4 13-4 26 0 33 23 57t57 24q26 0 48-15t30-40l29-90 91 31q11 3 24 3 33 0 57-22t24-55q0-25-17-45t-41-29l-88-30 59-177 91 32q13 4 26 4z m-443-146l173 58-59 176-173-60z" horiz-adv-x="928.6" />

<glyph glyph-name="git" unicode="&#xf1d3;" d="M332 5q0 56-92 56-88 0-88-58 0-57 96-57 84 0 84 59z m-33 422q0 34-17 56t-49 23q-69 0-69-81 0-75 69-75 66 0 66 77z m150 180v-112q-20-7-44-13 9-24 9-47 0-70-41-120t-110-63q-22-5-33-15t-11-33q0-17 13-28t32-18 44-12 48-15 44-21 32-35 13-55q0-170-203-170-38 0-72 7t-65 23-49 46-18 71q0 92 102 125v3q-38 22-38 70 0 61 35 76v3q-40 13-66 60t-27 93q0 77 53 129t131 51q54 0 100-26 54 0 121 26z m178-491h-124q2 25 2 74v340q0 53-2 72h124q-3-19-3-69v-343q0-49 3-74z m335 124v-110q-40-22-97-22-35 0-60 12t-39 27-22 44-10 51-2 58v196h1v2q-4 0-11 0t-10 1q-12 0-33-3v106h54v42q0 30-4 50h127q-3-23-3-92h95v-106q-8 0-24 1t-24 1h-47v-204q0-73 48-73 34 0 61 19z m-321 528q0-32-22-57t-54-24q-32 0-54 24t-23 57q0 33 22 57t55 25q33 0 54-25t22-57z" horiz-adv-x="1000" />

<glyph glyph-name="at" unicode="&#xf1fa;" d="M542 418q0 60-29 94t-83 34q-35 0-69-17t-61-47-45-77-17-100q0-63 30-97t84-34q54 0 98 37t69 93 23 114z m315-68q0-62-20-110t-55-75-74-42-81-15q-3 0-8 0t-10-1q-53 0-79 30-15 18-18 46-29-37-74-61t-96-25q-90 0-140 54t-49 150q0 88 37 162t100 117 137 43q48 0 86-19t60-56l1 11 6 31q0 3 3 7t5 3h66q3 0 7-6 3-3 2-9l-67-343q-3-13-3-26 0-22 7-29t25-8q16 1 32 3t41 14 43 28 31 50 14 76q0 163-97 260t-260 97q-73 0-139-28t-114-76-76-114-29-139 29-139 76-113 114-77 139-28q127 0 226 80 6 5 13 5t12-7l23-27q4-7 4-14-2-7-7-12-57-46-127-72t-144-25q-87 0-167 34t-136 92-92 137-34 166 34 166 92 137 136 92 167 34q192 0 310-119t118-310z" horiz-adv-x="857.1" />

<glyph glyph-name="gitlab" unicode="&#xf296;" d="M58 456l442-566-484 351q-10 7-14 19t0 24l56 172z m258 0h368l-184-566z m-111 342l111-342h-258l111 342q4 12 18 12t18-12z m737-342l56-172q4-12 0-24t-14-19l-484-351 442 566z m0 0h-258l111 342q4 12 18 12t19-12z" horiz-adv-x="1000" />
</font>
</defs>
</svg>